{
  "Actor": {
    "types": ["character", "ephemeral"],
    "templates": {
      "base": {
        "health": {
          "max": 5,
          "lethal": 5,
          "aggravated": 5,
          "value": 5
        },
        "description": "",
        "derivedTraits": {
          "size": {
            "value": 0,
            "mod": 0
          },
          "speed": {
            "value": 0,
            "mod": 0
          },
          "defense": {
            "value": 0,
            "mod": 0
          },
          "armor": {
            "value": 0,
            "mod": 0
          },
          "ballistic": {
            "value": 0,
            "mod": 0
          },
          "initiativeMod": {
            "value": 0,
            "mod": 0
          },
          "perception": {
            "value": 0,
            "mod": 0
          }
        },
        "isNameKnown": false,
        "isTypeKnown": false,
        "isDead": false
      },
      "common": {
        "attributes_physical": {
          "strength": {
            "value": 1
          },
          "dexterity": {
            "value": 1
          },
          "stamina": {
            "value": 1
          }
        },
        "attributes_social": {
          "presence": {
            "value": 1
          },
          "manipulation": {
            "value": 1
          },
          "composure": {
            "value": 1
          }
        },
        "attributes_mental": {
          "intelligence": {
            "value": 1
          },
          "wits": {
            "value": 1
          },
          "resolve": {
            "value": 1
          }
        },
        "skills_physical": {
          "athletics": {
            "value": 0,
            "specialties": [],
            "isRote": false
          },
          "brawl": {
            "value": 0,
            "specialties": [],
            "isRote": false
          },
          "drive": {
            "value": 0,
            "specialties": [],
            "isRote": false
          },
          "firearms": {
            "value": 0,
            "specialties": [],
            "isRote": false
          },
          "larceny": {
            "value": 0,
            "specialties": [],
            "isRote": false
          },
          "stealth": {
            "value": 0,
            "specialties": [],
            "isRote": false
          },
          "survival": {
            "value": 0,
            "specialties": [],
            "isRote": false
          },
          "weaponry": {
            "value": 0,
            "specialties": [],
            "isRote": false
          }
        },
        "skills_social": {
          "animalKen": {
            "value": 0,
            "specialties": [],
            "isRote": false
          },
          "empathy": {
            "value": 0,
            "specialties": [],
            "isRote": false
          },
          "expression": {
            "value": 0,
            "specialties": [],
            "isRote": false
          },
          "intimidation": {
            "value": 0,
            "specialties": [],
            "isRote": false
          },
          "persuasion": {
            "value": 0,
            "specialties": [],
            "isRote": false
          },
          "socialize": {
            "value": 0,
            "specialties": [],
            "isRote": false
          },
          "streetwise": {
            "value": 0,
            "specialties": [],
            "isRote": false
          },
          "subterfuge": {
            "value": 0,
            "specialties": [],
            "isRote": false
          }
        },
        "skills_mental": {
          "academics": {
            "value": 0,
            "specialties": [],
            "isRote": false
          },
          "computer": {
            "value": 0,
            "specialties": [],
            "isRote": false
          },
          "crafts": {
            "value": 0,
            "specialties": [],
            "isRote": false
          },
          "investigation": {
            "value": 0,
            "specialties": [],
            "isRote": false
          },
          "medicine": {
            "value": 0,
            "specialties": [],
            "isRote": false
          },
          "occult": {
            "value": 0,
            "specialties": [],
            "isRote": false
          },
          "politics": {
            "value": 0,
            "specialties": [],
            "isRote": false
          },
          "science": {
            "value": 0,
            "specialties": [],
            "isRote": false
          }
        }
      },
      "human": {
        "age": 0,
        "sex": "",
        "faction": "",
        "virtue": "",
        "vice": "",
        "beats": 0,
        "experience": 0,
        "progress": [],
        "willpower": {
          "value": 0,
          "max": 5
        },
        "aspirations": "",
        "notes": ""
      },
      "sleeper": {
        "integrity": 7
      },
      "mage": {
        "shadowName": "",
        "mage_traits": {
          "gnosis": 0,
          "wisdom": 7
        },
        "mana": {
          "value": 0,
          "max": 0
        },
        "arcaneBeats": 0,
        "arcaneExperience": 0,
        "obsessions": "",
        "nimbus": "",
        "path": "",
        "order": "",
        "legacy": "",
        "arcana_gross": {
          "forces": {
            "value": 0,
            "isInferior": false,
            "isRuling": false
          },
          "life": {
            "value": 0,
            "isInferior": false,
            "isRuling": false
          },
          "matter": {
            "value": 0,
            "isInferior": false,
            "isRuling": false
          },
          "space": {
            "value": 0,
            "isInferior": false,
            "isRuling": false
          },
          "time": {
            "value": 0,
            "isInferior": false,
            "isRuling": false
          }
        },
        "arcana_subtle": {
          "death": {
            "value": 0,
            "isInferior": false,
            "isRuling": false
          },
          "fate": {
            "value": 0,
            "isInferior": false,
            "isRuling": false
          },
          "mind": {
            "value": 0,
            "isInferior": false,
            "isRuling": false
          },
          "prime": {
            "value": 0,
            "isInferior": false,
            "isRuling": false
          },
          "spirit": {
            "value": 0,
            "isInferior": false,
            "isRuling": false
          }
        }
      },
      "vampire": {
        "clan": "",
        "bloodline": "",
        "covenant": "",
        "vampireAge": 0,
        "vampire_traits": {
          "bloodPotency": 0,
          "humanity": 7
        },
        "touchstones_vampire": {
          "10": "",
          "9": "",
          "8": "",
          "7": "",
          "6": "",
          "5": "",
          "4": "",
          "3": "",
          "2": "",
          "1": ""
        },
        "vitae": {
          "value": 0,
          "max": 0
        },
        "banes": "",
        "disciplines_common": {
          "celerity": {
            "value": 0
          },
          "resilience": {
            "value": 0
          },
          "vigor": {
            "value": 0
          },
          "animalism": {
            "value": 0
          },
          "obfuscate": {
            "value": 0
          },
          "cruac": {
            "value": 0
          }
        },
        "disciplines_unique": {
          "auspex": {
            "value": 0
          },
          "dominate": {
            "value": 0
          },
          "majesty": {
            "value": 0
          },
          "nightmare": {
            "value": 0
          },
          "protean": {
            "value": 0
          },
          "thebanSorcery": {
            "value": 0
          }
        },
        "disciplines_own": {}
      },
      "changeling": {
        "seeming": "",
        "kith": "",
        "court": "",
        "touchstones_changeling": {
          "2": "",
          "1": ""
        },
        "glamour": {
          "value": 10,
          "max": 10
        },
        "clarity": {
          "value": 2,
          "max": 2,
          "severe": 2
        },
        "goblinDebt": {
          "value": 10,
          "max": 10
        },
        "changeling_traits": {
          "wyrd": 1
        }
      },
      "werewolf": {
        "auspice": "",
        "tribe": "",
        "werewolf_traits": {
          "primalUrge": 1,
          "harmony": 7
        },
        "werewolf_renown": {
          "purity": {
            "value": 0
          },
          "glory": {
            "value": 0
          },
          "honor": {
            "value": 0
          },
          "wisdom": {
            "value": 0
          },
          "cunning": {
            "value": 0
          }
        },
        "essence": {
          "value": 0,
          "max": 10
        }
      }
      },
    "character": {
      "templates": ["base", "common", "human", "sleeper", "mage", "vampire", "changeling", "werewolf"],
      "characterType": "Mortal"
    },
    "ephemeral": {
      "templates": ["base"],
      "ephemeralType": "Spirit",
      "rank": 1,
      "rankName": "",
      "bans": "",
      "banes": "",
      "aliases": "",
      "virtue": "",
      "vice": "",
      "integrity": 0,
      "specialTraits": "",
      "essence": {
        "value": 10,
        "max": 10
      },
      "willpower": {
        "value": 0,
        "max": 5
      },
      "eph_physical": {
        "power": {
          "value": 1
        }
      },
      "eph_social": {
        "finesse": {
          "value": 1
        }
      },
      "eph_mental": {
        "resistance": {
          "value": 1
        }
      }
    }
  },
  "Item": {
    "types": ["equipment", "container", "service", "firearm", "melee", "armor", "ammo", "spell", "condition", "tilt", "merit", "activeSpell", "yantra", "attainment", "relationship", "vehicle", "influence", "formAbility", "devotion", "rite", "vinculum", "discipline_power", "contract", "pledge", "form", "facet", "werewolf_rite", "numen", "manifestation"],
    "templates": {
      "common": {
        "description": "",
        "availability": 1
      },
      "object": {
        "equipped": false,
        "isMagical": false,
        "magicType": "None",
        "mana": {
          "value": 0,
          "max": 0
        }
      },
      "tool": {
        "diceBonus": 0,
        "size": 1
      },
      "combatEquipment": {
        "strengthReq": 1,
        "traits": []
      },
      "weapon": {
        "damage": 0,
        "initiativeMod": 0,
        "penetration": 0
      },
      "basicSpell": {
        "arcanum": "death",
        "practice": "Compelling",
        "primaryFactor": "Potency",
        "withstand": "",
        "level": 1,
        "roteSkill": "",
        "creator": "",
        "description": ""
      },
      "rollable": {
        "dicePool": {
          "value": 0,
          "attributes": []
        }
      },
      "effect": {
        "effects": [],
        "effectsActive": false
      }
    },
    "service": {
      "templates": ["common"],
      "label": "Service",
      "diceBonus": 1,
      "skill": ""
    },
    "equipment": {
      "templates": ["tool", "object", "common"],
      "label": "Equipment",
      "durability": 1,
      "structure": 1,
      "diceBonus": 1
    },
    "melee": {
      "templates": ["weapon", "combatEquipment", "tool", "object", "common"],
      "label": "Melee",
      "weaponType": "Melee"
    },
    "firearm": {
      "templates": ["weapon", "combatEquipment", "tool", "object", "common"],
      "label": "Firearm",
      "ranges": {
        "short": 20,
        "medium": 40,
        "long": 80
      },
      "capacity": 1,
      "magazine": null,
      "cartridge": "9mm"
    },
    "armor": {
      "templates": ["combatEquipment", "object", "common"],
      "label": "Armor",
      "rating": 1,
      "ballistic": 0,
      "defensePenalty": 0,
      "speedPenalty": 0,
      "coverage": {
        "torso": true,
        "arms": false,
        "legs": false,
        "head": false
      }
    },
    "ammo": {
      "templates": ["object", "common"],
      "label": "Ammo",
      "quantity": 1,
      "cartridge": "9mm"
    },
    "spell": {
      "templates": ["basicSpell"],
      "label": "Spell"
    },
    "activeSpell": {
      "templates": ["basicSpell"],
      "label": "Active Spell",
      "potency": {
        "value": 1,
        "isAdvanced": false
      },
      "duration": {
        "value": "1 turn",
        "isAdvanced": false
      },
      "scale": {
        "value": "1 Subject, Size 5, Arm's reach",
        "isAdvanced": false
      },
      "casting_time": {
        "value": "",
        "isAdvanced": false
      },
      "range": {
        "value": "Self/touch or Aimed",
        "isAdvanced": false
      },
      "isRelinquished": false,
      "isRelinquishedSafely": false,
      "paradox": {
        "previous_rolls": 0,
        "sleeper_witnesses": "None",
        "magical_tool_used": false,
        "mana_spent": 0,
        "value": 0
      }
    },
    "condition": {
      "templates": ["effect"],
      "label": "Condition",
      "description": "",
      "isPersistent": false,
      "isClarity": false
    },
    "tilt": {
      "templates": ["effect"],
      "label": "Tilt",
      "description": "",
      "isEnvironmental": false
    },
    "merit": {
      "templates": ["effect"],
      "label": "Merit",
      "description": "",
      "rating": 1
    },
    "numen": {
      "description": "",
      "reaching": false
    },
    "yantra": {
      "label": "Yantra",
      "description": "",
      "subtype": "",
      "isDedicated": false,
      "diceBonus": 1
    },
    "attainment": {
      "label": "Attainment",
      "description": "",
      "level": 1,
      "arcanum": "death",
      "legacy": ""
    },
    "relationship": {
      "label": "Relationship",
      "description": "",
      "impression": "Average",
      "doors": {
        "value": 0,
        "max": 1
      },
      "penalty": 0
    },
    "vehicle": {
      "templates": ["common", "tool"],
      "durability": 0,
      "structure": 0,
      "speed": 0,
      "isMagical": false,
      "magicType": "None",
      "mana": {
        "value": 0,
        "max": 0
      }
    },
    "influence": {
      "label": "Sphere of Influence",
      "description": "",
      "rating": 1
    },
    "manifestation": {
      "label": "Manifestation",
      "description": ""
    },
    "devotion": {
      "templates": ["rollable"],
      "label": "Devotion",
      "description": "",
      "cost": {
        "value": 0,
        "perTurn": false
      },
      "action": "Instant",
      "duration": ""
    },
    "rite": {
      "templates": ["rollable"],
      "label": "Rite",
      "description": "",
      "riteType": "Rite",
      "level": 1,
      "targetNumber": 5,
      "withstandType": "Resisted by",
      "withstand": "",
      "sacrament": ""
    },
    "vinculum": {
      "label": "Vinculum",
      "description": "",
      "stage": 1
    },
    "discipline_power": {
      "templates": ["rollable"],
      "description": "",
      "cost": "",
      "discipline": "Animalism",
      "level": 1,
      "action": "Instant",
      "duration": ""
    },
    "container": {
      "templates": ["tool", "object", "common"],
      "label": "Container",
      "durability": 1,
      "structure": 1,
      "contents": []
    },
    "contract": {
      "templates": ["rollable"],
      "label": "Contract",
      "description": "",
      "costGlamour": {
        "value": 0,
        "perTurn": false
      },
      "costWillpower": {
        "value": 0,
        "perTurn": false
      },
      "action": "",
      "duration": "Scene",
      "majorType": "Arcadian",
      "subType": "Crown",
      "regalia": "Common"
    },
    "pledge": {
      "description": "",
      "type": "Sealing"
    },
    "form": {
      "templates": ["effect"],
      "description": "",
      "description_short": "",
      "subname": ""
    },
    "facet": {
      "templates": ["rollable"],
      "description": "",
      "cost": {
        "value": 0,
        "misc": ""
      },
      "action": "Instant",
      "duration": "",
      "giftType": "moon",
      "level": 1,
      "gift": ""
    },
    "werewolf_rite": {
      "templates": ["rollable"],
      "description": "",
      "level": 1,
      "riteType": "Wolf Rite",
      "action": "Extended"
    }
  }
}